%YAML 1.1
%TAG !u! tag:unity3d.com,2011:
--- !u!1001 &100100000
Prefab:
  m_ObjectHideFlags: 1
  serializedVersion: 2
  m_Modification:
    m_TransformParent: {fileID: 0}
    m_Modifications: []
    m_RemovedComponents: []
  m_SourcePrefab: {fileID: 0}
  m_RootGameObject: {fileID: 1808656160019124}
  m_IsPrefabAsset: 1
--- !u!1 &1404668500055526
GameObject:
  m_ObjectHideFlags: 0
  m_CorrespondingSourceObject: {fileID: 0}
  m_PrefabInternal: {fileID: 100100000}
  serializedVersion: 6
  m_Component:
  - component: {fileID: 4677426917840492}
  - component: {fileID: 8195094282098282538}
  - component: {fileID: 3664157344691490924}
  m_Layer: 31
  m_Name: Layer1
  m_TagString: Untagged
  m_Icon: {fileID: 0}
  m_NavMeshLayer: 0
  m_StaticEditorFlags: 0
  m_IsActive: 1
--- !u!1 &1808656160019124
GameObject:
  m_ObjectHideFlags: 0
  m_CorrespondingSourceObject: {fileID: 0}
  m_PrefabInternal: {fileID: 100100000}
  serializedVersion: 6
  m_Component:
  - component: {fileID: 4183781900400458}
  - component: {fileID: 2569400267257124850}
  m_Layer: 31
  m_Name: Collision
  m_TagString: Untagged
  m_Icon: {fileID: 0}
  m_NavMeshLayer: 0
  m_StaticEditorFlags: 0
  m_IsActive: 1
--- !u!4 &4183781900400458
Transform:
  m_ObjectHideFlags: 1
  m_CorrespondingSourceObject: {fileID: 0}
  m_PrefabInternal: {fileID: 100100000}
  m_GameObject: {fileID: 1808656160019124}
  m_LocalRotation: {x: 0, y: 0, z: 0, w: 1}
  m_LocalPosition: {x: 0, y: 0, z: 0}
  m_LocalScale: {x: 1, y: 1, z: 1}
  m_Children:
  - {fileID: 4677426917840492}
  m_Father: {fileID: 0}
  m_RootOrder: 0
  m_LocalEulerAnglesHint: {x: 0, y: 0, z: 0}
--- !u!4 &4677426917840492
Transform:
  m_ObjectHideFlags: 1
  m_CorrespondingSourceObject: {fileID: 0}
  m_PrefabInternal: {fileID: 100100000}
  m_GameObject: {fileID: 1404668500055526}
  m_LocalRotation: {x: -0, y: -0, z: -0, w: 1}
  m_LocalPosition: {x: 0, y: 0, z: 0}
  m_LocalScale: {x: 1, y: 1, z: 1}
  m_Children: []
  m_Father: {fileID: 4183781900400458}
  m_RootOrder: 0
  m_LocalEulerAnglesHint: {x: 0, y: 0, z: 0}
--- !u!114 &114945320985937558
MonoBehaviour:
  m_ObjectHideFlags: 0
  m_CorrespondingSourceObject: {fileID: 0}
  m_PrefabInternal: {fileID: 0}
  m_GameObject: {fileID: 0}
  m_Enabled: 1
  m_EditorHideFlags: 1
  m_Script: {fileID: 12395, guid: 0000000000000000e000000000000000, type: 0}
  m_Name: Palette Settings
  m_EditorClassIdentifier: 
  cellSizing: 0
--- !u!156049354 &2569400267257124850
Grid:
  m_ObjectHideFlags: 1
  m_CorrespondingSourceObject: {fileID: 0}
  m_PrefabInternal: {fileID: 100100000}
  m_GameObject: {fileID: 1808656160019124}
  m_Enabled: 1
  m_CellSize: {x: 1, y: 1, z: 0}
  m_CellGap: {x: 0, y: 0, z: 0}
  m_CellLayout: 0
  m_CellSwizzle: 0
--- !u!483693784 &3664157344691490924
TilemapRenderer:
  m_ObjectHideFlags: 1
  m_CorrespondingSourceObject: {fileID: 0}
  m_PrefabInternal: {fileID: 100100000}
  m_GameObject: {fileID: 1404668500055526}
  m_Enabled: 0
  m_CastShadows: 0
  m_ReceiveShadows: 0
  m_DynamicOccludee: 0
  m_MotionVectors: 1
  m_LightProbeUsage: 0
  m_ReflectionProbeUsage: 0
  m_RenderingLayerMask: 4294967295
  m_Materials:
  - {fileID: 10754, guid: 0000000000000000f000000000000000, type: 0}
  m_StaticBatchInfo:
    firstSubMesh: 0
    subMeshCount: 0
  m_StaticBatchRoot: {fileID: 0}
  m_ProbeAnchor: {fileID: 0}
  m_LightProbeVolumeOverride: {fileID: 0}
  m_ScaleInLightmap: 1
  m_PreserveUVs: 0
  m_IgnoreNormalsForChartDetection: 0
  m_ImportantGI: 0
  m_StitchLightmapSeams: 0
  m_SelectedEditorRenderState: 0
  m_MinimumChartSize: 4
  m_AutoUVMaxDistance: 0.5
  m_AutoUVMaxAngle: 89
  m_LightmapParameters: {fileID: 0}
  m_SortingLayerID: 0
  m_SortingLayer: 0
  m_SortingOrder: 0
  m_ChunkSize: {x: 32, y: 32, z: 32}
  m_ChunkCullingBounds: {x: 0, y: 0, z: 0}
  m_MaxChunkCount: 16
  m_MaxFrameAge: 16
  m_SortOrder: 0
  m_DetectChunkCullingBounds: 0
  m_MaskInteraction: 0
--- !u!1839735485 &8195094282098282538
Tilemap:
  m_ObjectHideFlags: 1
  m_CorrespondingSourceObject: {fileID: 0}
  m_PrefabInternal: {fileID: 100100000}
  m_GameObject: {fileID: 1404668500055526}
  m_Enabled: 1
  m_Tiles:
  - first: {x: -2, y: -6, z: 0}
    second:
      m_TileIndex: 42
      m_TileSpriteIndex: 42
      m_TileMatrixIndex: 0
      m_TileColorIndex: 0
      m_ObjectToInstantiate: {fileID: 0}
      m_TileFlags: 1
      m_ColliderType: 1
  - first: {x: -1, y: -6, z: 0}
    second:
      m_TileIndex: 43
      m_TileSpriteIndex: 43
      m_TileMatrixIndex: 0
      m_TileColorIndex: 0
      m_ObjectToInstantiate: {fileID: 0}
      m_TileFlags: 1
      m_ColliderType: 1
  - first: {x: 0, y: -6, z: 0}
    second:
      m_TileIndex: 44
      m_TileSpriteIndex: 44
      m_TileMatrixIndex: 0
      m_TileColorIndex: 0
      m_ObjectToInstantiate: {fileID: 0}
      m_TileFlags: 1
      m_ColliderType: 1
  - first: {x: 1, y: -6, z: 0}
    second:
      m_TileIndex: 45
      m_TileSpriteIndex: 45
      m_TileMatrixIndex: 0
      m_TileColorIndex: 0
      m_ObjectToInstantiate: {fileID: 0}
      m_TileFlags: 1
      m_ColliderType: 1
  - first: {x: 2, y: -6, z: 0}
    second:
      m_TileIndex: 46
      m_TileSpriteIndex: 46
      m_TileMatrixIndex: 0
      m_TileColorIndex: 0
      m_ObjectToInstantiate: {fileID: 0}
      m_TileFlags: 1
      m_ColliderType: 1
  - first: {x: 3, y: -6, z: 0}
    second:
      m_TileIndex: 47
      m_TileSpriteIndex: 47
      m_TileMatrixIndex: 0
      m_TileColorIndex: 0
      m_ObjectToInstantiate: {fileID: 0}
      m_TileFlags: 1
      m_ColliderType: 1
  - first: {x: -2, y: -5, z: 0}
    second:
      m_TileIndex: 35
      m_TileSpriteIndex: 35
      m_TileMatrixIndex: 0
      m_TileColorIndex: 0
      m_ObjectToInstantiate: {fileID: 0}
      m_TileFlags: 1
      m_ColliderType: 1
  - first: {x: -1, y: -5, z: 0}
    second:
      m_TileIndex: 36
      m_TileSpriteIndex: 36
      m_TileMatrixIndex: 0
      m_TileColorIndex: 0
      m_ObjectToInstantiate: {fileID: 0}
      m_TileFlags: 1
      m_ColliderType: 1
  - first: {x: 0, y: -5, z: 0}
    second:
      m_TileIndex: 37
      m_TileSpriteIndex: 37
      m_TileMatrixIndex: 0
      m_TileColorIndex: 0
      m_ObjectToInstantiate: {fileID: 0}
      m_TileFlags: 1
      m_ColliderType: 1
  - first: {x: 1, y: -5, z: 0}
    second:
      m_TileIndex: 38
      m_TileSpriteIndex: 38
      m_TileMatrixIndex: 0
      m_TileColorIndex: 0
      m_ObjectToInstantiate: {fileID: 0}
      m_TileFlags: 1
      m_ColliderType: 1
  - first: {x: 2, y: -5, z: 0}
    second:
      m_TileIndex: 39
      m_TileSpriteIndex: 39
      m_TileMatrixIndex: 0
      m_TileColorIndex: 0
      m_ObjectToInstantiate: {fileID: 0}
      m_TileFlags: 1
      m_ColliderType: 1
  - first: {x: 3, y: -5, z: 0}
    second:
      m_TileIndex: 40
      m_TileSpriteIndex: 40
      m_TileMatrixIndex: 0
      m_TileColorIndex: 0
      m_ObjectToInstantiate: {fileID: 0}
      m_TileFlags: 1
      m_ColliderType: 1
  - first: {x: 4, y: -5, z: 0}
    second:
      m_TileIndex: 41
      m_TileSpriteIndex: 41
      m_TileMatrixIndex: 0
      m_TileColorIndex: 0
      m_ObjectToInstantiate: {fileID: 0}
      m_TileFlags: 1
      m_ColliderType: 1
  - first: {x: -2, y: -4, z: 0}
    second:
      m_TileIndex: 28
      m_TileSpriteIndex: 28
      m_TileMatrixIndex: 0
      m_TileColorIndex: 0
      m_ObjectToInstantiate: {fileID: 0}
      m_TileFlags: 1
      m_ColliderType: 1
  - first: {x: -1, y: -4, z: 0}
    second:
      m_TileIndex: 29
      m_TileSpriteIndex: 29
      m_TileMatrixIndex: 0
      m_TileColorIndex: 0
      m_ObjectToInstantiate: {fileID: 0}
      m_TileFlags: 1
      m_ColliderType: 1
  - first: {x: 0, y: -4, z: 0}
    second:
      m_TileIndex: 30
      m_TileSpriteIndex: 30
      m_TileMatrixIndex: 0
      m_TileColorIndex: 0
      m_ObjectToInstantiate: {fileID: 0}
      m_TileFlags: 1
      m_ColliderType: 1
  - first: {x: 1, y: -4, z: 0}
    second:
      m_TileIndex: 31
      m_TileSpriteIndex: 31
      m_TileMatrixIndex: 0
      m_TileColorIndex: 0
      m_ObjectToInstantiate: {fileID: 0}
      m_TileFlags: 1
      m_ColliderType: 1
  - first: {x: 2, y: -4, z: 0}
    second:
      m_TileIndex: 32
      m_TileSpriteIndex: 32
      m_TileMatrixIndex: 0
      m_TileColorIndex: 0
      m_ObjectToInstantiate: {fileID: 0}
      m_TileFlags: 1
      m_ColliderType: 1
  - first: {x: 3, y: -4, z: 0}
    second:
      m_TileIndex: 33
      m_TileSpriteIndex: 33
      m_TileMatrixIndex: 0
      m_TileColorIndex: 0
      m_ObjectToInstantiate: {fileID: 0}
      m_TileFlags: 1
      m_ColliderType: 1
  - first: {x: 4, y: -4, z: 0}
    second:
      m_TileIndex: 34
      m_TileSpriteIndex: 34
      m_TileMatrixIndex: 0
      m_TileColorIndex: 0
      m_ObjectToInstantiate: {fileID: 0}
      m_TileFlags: 1
      m_ColliderType: 1
  - first: {x: -2, y: -3, z: 0}
    second:
      m_TileIndex: 21
      m_TileSpriteIndex: 21
      m_TileMatrixIndex: 0
      m_TileColorIndex: 0
      m_ObjectToInstantiate: {fileID: 0}
      m_TileFlags: 1
      m_ColliderType: 1
  - first: {x: -1, y: -3, z: 0}
    second:
      m_TileIndex: 22
      m_TileSpriteIndex: 22
      m_TileMatrixIndex: 0
      m_TileColorIndex: 0
      m_ObjectToInstantiate: {fileID: 0}
      m_TileFlags: 1
      m_ColliderType: 1
  - first: {x: 0, y: -3, z: 0}
    second:
      m_TileIndex: 23
      m_TileSpriteIndex: 23
      m_TileMatrixIndex: 0
      m_TileColorIndex: 0
      m_ObjectToInstantiate: {fileID: 0}
      m_TileFlags: 1
      m_ColliderType: 1
  - first: {x: 1, y: -3, z: 0}
    second:
      m_TileIndex: 24
      m_TileSpriteIndex: 24
      m_TileMatrixIndex: 0
      m_TileColorIndex: 0
      m_ObjectToInstantiate: {fileID: 0}
      m_TileFlags: 1
      m_ColliderType: 1
  - first: {x: 2, y: -3, z: 0}
    second:
      m_TileIndex: 25
      m_TileSpriteIndex: 25
      m_TileMatrixIndex: 0
      m_TileColorIndex: 0
      m_ObjectToInstantiate: {fileID: 0}
      m_TileFlags: 1
      m_ColliderType: 1
  - first: {x: 3, y: -3, z: 0}
    second:
      m_TileIndex: 26
      m_TileSpriteIndex: 26
      m_TileMatrixIndex: 0
      m_TileColorIndex: 0
      m_ObjectToInstantiate: {fileID: 0}
      m_TileFlags: 1
      m_ColliderType: 1
  - first: {x: 4, y: -3, z: 0}
    second:
      m_TileIndex: 27
      m_TileSpriteIndex: 27
      m_TileMatrixIndex: 0
      m_TileColorIndex: 0
      m_ObjectToInstantiate: {fileID: 0}
      m_TileFlags: 1
      m_ColliderType: 1
  - first: {x: -2, y: -2, z: 0}
    second:
      m_TileIndex: 14
      m_TileSpriteIndex: 14
      m_TileMatrixIndex: 0
      m_TileColorIndex: 0
      m_ObjectToInstantiate: {fileID: 0}
      m_TileFlags: 1
      m_ColliderType: 1
  - first: {x: -1, y: -2, z: 0}
    second:
      m_TileIndex: 15
      m_TileSpriteIndex: 15
      m_TileMatrixIndex: 0
      m_TileColorIndex: 0
      m_ObjectToInstantiate: {fileID: 0}
      m_TileFlags: 1
      m_ColliderType: 1
  - first: {x: 0, y: -2, z: 0}
    second:
      m_TileIndex: 16
      m_TileSpriteIndex: 16
      m_TileMatrixIndex: 0
      m_TileColorIndex: 0
      m_ObjectToInstantiate: {fileID: 0}
      m_TileFlags: 1
      m_ColliderType: 1
  - first: {x: 1, y: -2, z: 0}
    second:
      m_TileIndex: 17
      m_TileSpriteIndex: 17
      m_TileMatrixIndex: 0
      m_TileColorIndex: 0
      m_ObjectToInstantiate: {fileID: 0}
      m_TileFlags: 1
      m_ColliderType: 1
  - first: {x: 2, y: -2, z: 0}
    second:
      m_TileIndex: 18
      m_TileSpriteIndex: 18
      m_TileMatrixIndex: 0
      m_TileColorIndex: 0
      m_ObjectToInstantiate: {fileID: 0}
      m_TileFlags: 1
      m_ColliderType: 1
  - first: {x: 3, y: -2, z: 0}
    second:
      m_TileIndex: 19
      m_TileSpriteIndex: 19
      m_TileMatrixIndex: 0
      m_TileColorIndex: 0
      m_ObjectToInstantiate: {fileID: 0}
      m_TileFlags: 1
      m_ColliderType: 1
  - first: {x: 4, y: -2, z: 0}
    second:
      m_TileIndex: 20
      m_TileSpriteIndex: 20
      m_TileMatrixIndex: 0
      m_TileColorIndex: 0
      m_ObjectToInstantiate: {fileID: 0}
      m_TileFlags: 1
      m_ColliderType: 1
  - first: {x: -2, y: -1, z: 0}
    second:
      m_TileIndex: 7
      m_TileSpriteIndex: 7
      m_TileMatrixIndex: 0
      m_TileColorIndex: 0
      m_ObjectToInstantiate: {fileID: 0}
      m_TileFlags: 1
      m_ColliderType: 1
  - first: {x: -1, y: -1, z: 0}
    second:
      m_TileIndex: 8
      m_TileSpriteIndex: 8
      m_TileMatrixIndex: 0
      m_TileColorIndex: 0
      m_ObjectToInstantiate: {fileID: 0}
      m_TileFlags: 1
      m_ColliderType: 1
  - first: {x: 0, y: -1, z: 0}
    second:
      m_TileIndex: 9
      m_TileSpriteIndex: 9
      m_TileMatrixIndex: 0
      m_TileColorIndex: 0
      m_ObjectToInstantiate: {fileID: 0}
      m_TileFlags: 1
      m_ColliderType: 1
  - first: {x: 1, y: -1, z: 0}
    second:
      m_TileIndex: 10
      m_TileSpriteIndex: 10
      m_TileMatrixIndex: 0
      m_TileColorIndex: 0
      m_ObjectToInstantiate: {fileID: 0}
      m_TileFlags: 1
      m_ColliderType: 1
  - first: {x: 2, y: -1, z: 0}
    second:
      m_TileIndex: 11
      m_TileSpriteIndex: 11
      m_TileMatrixIndex: 0
      m_TileColorIndex: 0
      m_ObjectToInstantiate: {fileID: 0}
      m_TileFlags: 1
      m_ColliderType: 1
  - first: {x: 3, y: -1, z: 0}
    second:
      m_TileIndex: 12
      m_TileSpriteIndex: 12
      m_TileMatrixIndex: 0
      m_TileColorIndex: 0
      m_ObjectToInstantiate: {fileID: 0}
      m_TileFlags: 1
      m_ColliderType: 1
  - first: {x: 4, y: -1, z: 0}
    second:
      m_TileIndex: 13
      m_TileSpriteIndex: 13
      m_TileMatrixIndex: 0
      m_TileColorIndex: 0
      m_ObjectToInstantiate: {fileID: 0}
      m_TileFlags: 1
      m_ColliderType: 1
  - first: {x: -2, y: 0, z: 0}
    second:
      m_TileIndex: 0
      m_TileSpriteIndex: 0
      m_TileMatrixIndex: 0
      m_TileColorIndex: 0
      m_ObjectToInstantiate: {fileID: 0}
      m_TileFlags: 1
      m_ColliderType: 1
  - first: {x: -1, y: 0, z: 0}
    second:
      m_TileIndex: 1
      m_TileSpriteIndex: 1
      m_TileMatrixIndex: 0
      m_TileColorIndex: 0
      m_ObjectToInstantiate: {fileID: 0}
      m_TileFlags: 1
      m_ColliderType: 1
  - first: {x: 0, y: 0, z: 0}
    second:
      m_TileIndex: 2
      m_TileSpriteIndex: 2
      m_TileMatrixIndex: 0
      m_TileColorIndex: 0
      m_ObjectToInstantiate: {fileID: 0}
      m_TileFlags: 1
      m_ColliderType: 1
  - first: {x: 1, y: 0, z: 0}
    second:
      m_TileIndex: 3
      m_TileSpriteIndex: 3
      m_TileMatrixIndex: 0
      m_TileColorIndex: 0
      m_ObjectToInstantiate: {fileID: 0}
      m_TileFlags: 1
      m_ColliderType: 1
  - first: {x: 2, y: 0, z: 0}
    second:
      m_TileIndex: 4
      m_TileSpriteIndex: 4
      m_TileMatrixIndex: 0
      m_TileColorIndex: 0
      m_ObjectToInstantiate: {fileID: 0}
      m_TileFlags: 1
      m_ColliderType: 1
  - first: {x: 3, y: 0, z: 0}
    second:
      m_TileIndex: 5
      m_TileSpriteIndex: 5
      m_TileMatrixIndex: 0
      m_TileColorIndex: 0
      m_ObjectToInstantiate: {fileID: 0}
      m_TileFlags: 1
      m_ColliderType: 1
  - first: {x: 4, y: 0, z: 0}
    second:
      m_TileIndex: 6
      m_TileSpriteIndex: 6
      m_TileMatrixIndex: 0
      m_TileColorIndex: 0
      m_ObjectToInstantiate: {fileID: 0}
      m_TileFlags: 1
      m_ColliderType: 1
  m_AnimatedTiles: {}
  m_TileAssetArray:
  - m_RefCount: 1
    m_Data: {fileID: 11400000, guid: 8dc4b3d4a8c67c14180f0c7311540ed0, type: 2}
  - m_RefCount: 1
    m_Data: {fileID: 11400000, guid: b2c3c7a5cb0f0bf4199e28effb6fbedc, type: 2}
  - m_RefCount: 1
    m_Data: {fileID: 11400000, guid: eb93fa5b9574d2a4890031bb1679fb19, type: 2}
  - m_RefCount: 1
    m_Data: {fileID: 11400000, guid: b50dca35b450efe4ea64710053f0120c, type: 2}
  - m_RefCount: 1
    m_Data: {fileID: 11400000, guid: 59d4b4f13d9d00042a24453e4a8922ae, type: 2}
  - m_RefCount: 1
    m_Data: {fileID: 11400000, guid: 41a5a4137fecc8e4d926366b50da6fd5, type: 2}
  - m_RefCount: 1
    m_Data: {fileID: 11400000, guid: eacbc88745d82a6439dc5fb9f6af506b, type: 2}
  - m_RefCount: 1
    m_Data: {fileID: 11400000, guid: 2297feeab7ce0d34fbfd7f0d681f0321, type: 2}
  - m_RefCount: 1
    m_Data: {fileID: 11400000, guid: fc392dcc1a295f54cad7112d2bb3f406, type: 2}
  - m_RefCount: 1
    m_Data: {fileID: 11400000, guid: 0e3b2065c3077a243a3c00b56f5ca2ca, type: 2}
  - m_RefCount: 1
    m_Data: {fileID: 11400000, guid: dd82875699ed77e4a8413987442b623c, type: 2}
  - m_RefCount: 1
    m_Data: {fileID: 11400000, guid: 38aeaeab65187d347ac83f292708a5cc, type: 2}
  - m_RefCount: 1
    m_Data: {fileID: 11400000, guid: b1b826da1c5a25f40a16b86dfc0f0b78, type: 2}
  - m_RefCount: 1
    m_Data: {fileID: 11400000, guid: fac03ec651572764a8cb3ac39d779647, type: 2}
  - m_RefCount: 1
    m_Data: {fileID: 11400000, guid: 29489bd2c1963144d9f7e8257b4b506f, type: 2}
  - m_RefCount: 1
    m_Data: {fileID: 11400000, guid: 73db5254253a7ec45a94caa6bfa3f676, type: 2}
  - m_RefCount: 1
    m_Data: {fileID: 11400000, guid: 7f41ef79e121dda4ab50e5814c90569c, type: 2}
  - m_RefCount: 1
    m_Data: {fileID: 11400000, guid: 89292362b8e56654582da0b4ed5fe1f6, type: 2}
  - m_RefCount: 1
    m_Data: {fileID: 11400000, guid: 35dd602d0e8b6bc48baac6198497e768, type: 2}
  - m_RefCount: 1
    m_Data: {fileID: 11400000, guid: 113682f1104cc7043b27ca6ab4874bb3, type: 2}
  - m_RefCount: 1
    m_Data: {fileID: 11400000, guid: 457133928be800b4fb9f77b82baeb926, type: 2}
  - m_RefCount: 1
    m_Data: {fileID: 11400000, guid: 30ed28eceff88df4e859883d4f24c24f, type: 2}
  - m_RefCount: 1
    m_Data: {fileID: 11400000, guid: d13cf358f98809149b7f2f77db2f207c, type: 2}
  - m_RefCount: 1
    m_Data: {fileID: 11400000, guid: c16104dda4a1df244ba722326f0c2d19, type: 2}
  - m_RefCount: 1
    m_Data: {fileID: 11400000, guid: 4ac54e75886943243a01f111664e38e0, type: 2}
  - m_RefCount: 1
    m_Data: {fileID: 11400000, guid: c98539f3894bd784f8ab9b5e46f903df, type: 2}
  - m_RefCount: 1
    m_Data: {fileID: 11400000, guid: 4759420a081d2a04382a7845dd635bb4, type: 2}
  - m_RefCount: 1
    m_Data: {fileID: 11400000, guid: 8c3422317000f784c8495dafe58270ae, type: 2}
  - m_RefCount: 1
    m_Data: {fileID: 11400000, guid: 9908f01dc5ec77b4c894dccf0d18edaa, type: 2}
  - m_RefCount: 1
    m_Data: {fileID: 11400000, guid: 14c0a601bc17683428d382ae893802b4, type: 2}
  - m_RefCount: 1
    m_Data: {fileID: 11400000, guid: 3d1b8d1cff16fad47af112de9096095f, type: 2}
  - m_RefCount: 1
    m_Data: {fileID: 11400000, guid: cb257297bb4c3b94398b44b25970d723, type: 2}
  - m_RefCount: 1
    m_Data: {fileID: 11400000, guid: bb58057d783768241aeba741b98bb8bd, type: 2}
  - m_RefCount: 1
    m_Data: {fileID: 11400000, guid: af3dd25160a562047892353c31b4462a, type: 2}
  - m_RefCount: 1
    m_Data: {fileID: 11400000, guid: 346acf563d3d957468d7e2c8c07bb03f, type: 2}
  - m_RefCount: 1
    m_Data: {fileID: 11400000, guid: 791dac8d205e3dc418e77eac26a9b63f, type: 2}
  - m_RefCount: 1
    m_Data: {fileID: 11400000, guid: dcde2e04983a4294e9b92a826782aeb1, type: 2}
  - m_RefCount: 1
    m_Data: {fileID: 11400000, guid: 609bfc1ed262b744aa0560bbec283ea8, type: 2}
  - m_RefCount: 1
    m_Data: {fileID: 11400000, guid: aec289c6fa3dc8644848f344558641fd, type: 2}
  - m_RefCount: 1
    m_Data: {fileID: 11400000, guid: c27e1c6b3b49df94b94a491b6526e5eb, type: 2}
  - m_RefCount: 1
    m_Data: {fileID: 11400000, guid: 82b7cc1201e42bb459e4cfd9a9220466, type: 2}
  - m_RefCount: 1
    m_Data: {fileID: 11400000, guid: 274e8c29878cd7c4e89a4283733d2b2d, type: 2}
  - m_RefCount: 1
    m_Data: {fileID: 11400000, guid: 3269c00997028d64292fd7f8a7de7eae, type: 2}
  - m_RefCount: 1
    m_Data: {fileID: 11400000, guid: 3741d6c5ea41506428d81ea592ca60fb, type: 2}
  - m_RefCount: 1
    m_Data: {fileID: 11400000, guid: aeb995b5f06a59541b7bdc54ef3c0c9d, type: 2}
  - m_RefCount: 1
    m_Data: {fileID: 11400000, guid: 6fb4b5dcac0230540ab5c4700235baea, type: 2}
  - m_RefCount: 1
    m_Data: {fileID: 11400000, guid: 91dfb3aac4ae1724991cd93cc4ee550b, type: 2}
  - m_RefCount: 1
    m_Data: {fileID: 11400000, guid: 65179fedde1b93449af24659c3a153e0, type: 2}
  m_TileSpriteArray:
  - m_RefCount: 1
    m_Data: {fileID: 21300000, guid: 5e6c7c745f2b90341b4b91cff6974191, type: 3}
  - m_RefCount: 1
    m_Data: {fileID: 21300002, guid: 5e6c7c745f2b90341b4b91cff6974191, type: 3}
  - m_RefCount: 1
    m_Data: {fileID: 21300004, guid: 5e6c7c745f2b90341b4b91cff6974191, type: 3}
  - m_RefCount: 1
    m_Data: {fileID: 21300006, guid: 5e6c7c745f2b90341b4b91cff6974191, type: 3}
  - m_RefCount: 1
    m_Data: {fileID: 21300008, guid: 5e6c7c745f2b90341b4b91cff6974191, type: 3}
  - m_RefCount: 1
    m_Data: {fileID: 21300016, guid: 5e6c7c745f2b90341b4b91cff6974191, type: 3}
  - m_RefCount: 1
    m_Data: {fileID: 21300024, guid: 5e6c7c745f2b90341b4b91cff6974191, type: 3}
  - m_RefCount: 1
    m_Data: {fileID: 21300022, guid: 5e6c7c745f2b90341b4b91cff6974191, type: 3}
  - m_RefCount: 1
    m_Data: {fileID: 21300020, guid: 5e6c7c745f2b90341b4b91cff6974191, type: 3}
  - m_RefCount: 1
    m_Data: {fileID: 21300018, guid: 5e6c7c745f2b90341b4b91cff6974191, type: 3}
  - m_RefCount: 1
    m_Data: {fileID: 21300032, guid: 5e6c7c745f2b90341b4b91cff6974191, type: 3}
  - m_RefCount: 1
    m_Data: {fileID: 21300034, guid: 5e6c7c745f2b90341b4b91cff6974191, type: 3}
  - m_RefCount: 1
    m_Data: {fileID: 21300036, guid: 5e6c7c745f2b90341b4b91cff6974191, type: 3}
  - m_RefCount: 1
    m_Data: {fileID: 21300038, guid: 5e6c7c745f2b90341b4b91cff6974191, type: 3}
  - m_RefCount: 1
    m_Data: {fileID: 21300040, guid: 5e6c7c745f2b90341b4b91cff6974191, type: 3}
  - m_RefCount: 1
    m_Data: {fileID: 21300048, guid: 5e6c7c745f2b90341b4b91cff6974191, type: 3}
  - m_RefCount: 1
    m_Data: {fileID: 21300050, guid: 5e6c7c745f2b90341b4b91cff6974191, type: 3}
  - m_RefCount: 1
    m_Data: {fileID: 21300052, guid: 5e6c7c745f2b90341b4b91cff6974191, type: 3}
  - m_RefCount: 1
    m_Data: {fileID: 21300054, guid: 5e6c7c745f2b90341b4b91cff6974191, type: 3}
  - m_RefCount: 1
    m_Data: {fileID: 21300056, guid: 5e6c7c745f2b90341b4b91cff6974191, type: 3}
  - m_RefCount: 1
    m_Data: {fileID: 21300064, guid: 5e6c7c745f2b90341b4b91cff6974191, type: 3}
  - m_RefCount: 1
    m_Data: {fileID: 21300066, guid: 5e6c7c745f2b90341b4b91cff6974191, type: 3}
  - m_RefCount: 1
    m_Data: {fileID: 21300068, guid: 5e6c7c745f2b90341b4b91cff6974191, type: 3}
  - m_RefCount: 1
    m_Data: {fileID: 21300070, guid: 5e6c7c745f2b90341b4b91cff6974191, type: 3}
  - m_RefCount: 1
    m_Data: {fileID: 21300072, guid: 5e6c7c745f2b90341b4b91cff6974191, type: 3}
  - m_RefCount: 1
    m_Data: {fileID: 21300074, guid: 5e6c7c745f2b90341b4b91cff6974191, type: 3}
  - m_RefCount: 1
    m_Data: {fileID: 21300080, guid: 5e6c7c745f2b90341b4b91cff6974191, type: 3}
  - m_RefCount: 1
    m_Data: {fileID: 21300082, guid: 5e6c7c745f2b90341b4b91cff6974191, type: 3}
  - m_RefCount: 1
    m_Data: {fileID: 21300084, guid: 5e6c7c745f2b90341b4b91cff6974191, type: 3}
  - m_RefCount: 1
    m_Data: {fileID: 21300086, guid: 5e6c7c745f2b90341b4b91cff6974191, type: 3}
  - m_RefCount: 1
    m_Data: {fileID: 21300088, guid: 5e6c7c745f2b90341b4b91cff6974191, type: 3}
  - m_RefCount: 1
    m_Data: {fileID: 21300090, guid: 5e6c7c745f2b90341b4b91cff6974191, type: 3}
  - m_RefCount: 1
    m_Data: {fileID: 21300096, guid: 5e6c7c745f2b90341b4b91cff6974191, type: 3}
  - m_RefCount: 1
    m_Data: {fileID: 21300098, guid: 5e6c7c745f2b90341b4b91cff6974191, type: 3}
  - m_RefCount: 1
    m_Data: {fileID: 21300100, guid: 5e6c7c745f2b90341b4b91cff6974191, type: 3}
  - m_RefCount: 1
    m_Data: {fileID: 21300102, guid: 5e6c7c745f2b90341b4b91cff6974191, type: 3}
  - m_RefCount: 1
    m_Data: {fileID: 21300104, guid: 5e6c7c745f2b90341b4b91cff6974191, type: 3}
  - m_RefCount: 1
    m_Data: {fileID: 21300108, guid: 5e6c7c745f2b90341b4b91cff6974191, type: 3}
  - m_RefCount: 1
    m_Data: {fileID: 21300112, guid: 5e6c7c745f2b90341b4b91cff6974191, type: 3}
  - m_RefCount: 1
    m_Data: {fileID: 21300114, guid: 5e6c7c745f2b90341b4b91cff6974191, type: 3}
  - m_RefCount: 1
    m_Data: {fileID: 21300116, guid: 5e6c7c745f2b90341b4b91cff6974191, type: 3}
  - m_RefCount: 1
    m_Data: {fileID: 21300118, guid: 5e6c7c745f2b90341b4b91cff6974191, type: 3}
  - m_RefCount: 1
    m_Data: {fileID: 21300174, guid: 5e6c7c745f2b90341b4b91cff6974191, type: 3}
  - m_RefCount: 1
    m_Data: {fileID: 21300176, guid: 5e6c7c745f2b90341b4b91cff6974191, type: 3}
  - m_RefCount: 1
    m_Data: {fileID: 21300122, guid: 5e6c7c745f2b90341b4b91cff6974191, type: 3}
  - m_RefCount: 1
    m_Data: {fileID: 21300110, guid: 5e6c7c745f2b90341b4b91cff6974191, type: 3}
  - m_RefCount: 1
    m_Data: {fileID: 21300188, guid: 5e6c7c745f2b90341b4b91cff6974191, type: 3}
  - m_RefCount: 1
    m_Data: {fileID: 21300190, guid: 5e6c7c745f2b90341b4b91cff6974191, type: 3}
  m_TileMatrixArray:
  - m_RefCount: 48
    m_Data:
      e00: 1
      e01: 0
      e02: 0
      e03: 0
      e10: 0
      e11: 1
      e12: 0
      e13: 0
      e20: 0
      e21: 0
      e22: 1
      e23: 0
      e30: 0
      e31: 0
      e32: 0
      e33: 1
  m_TileColorArray:
  - m_RefCount: 48
    m_Data: {r: 1, g: 1, b: 1, a: 1}
  m_AnimationFrameRate: 1
  m_Color: {r: 1, g: 1, b: 1, a: 1}
  m_Origin: {x: -2, y: -6, z: 0}
  m_Size: {x: 7, y: 7, z: 1}
  m_TileAnchor: {x: 0.5, y: 0.5, z: 0}
  m_TileOrientation: 0
  m_TileOrientationMatrix:
    e00: 1
    e01: 0
    e02: 0
    e03: 0
    e10: 0
    e11: 1
    e12: 0
    e13: 0
    e20: 0
    e21: 0
    e22: 1
    e23: 0
    e30: 0
    e31: 0
    e32: 0
    e33: 1
